STAT 391: Applied Causal Inference
…
---

# `count()`

`count()` is probably my **favorite** function of *all time*! 

- It's so simple, but **SO** useful. 

```r
spotify_songs %>% 
  count(playlist_subgenre)
```

```
## # A tibble: 24 x 2
##    playlist_subgenre     n
##    <chr>             <int>
##  1 album rock         1065
##  2 big room           1206
##  3 classic rock       1296
##  4 dance pop          1298
##  5 electro house      1511
##  6 electropop         1408
##  7 gangster rap       1458
##  8 hard rock          1485
##  9 hip hop            1322
## 10 hip pop            1256
## # … with 14 more rows
```
---

# `count()`

`count()` is probably my **favorite** function of *all time*! 

- It's so simple, but **SO** useful. 

```r
spotify_songs %>% 
* count(playlist_subgenre, sort = TRUE)
```

```
## # A tibble: 24 x 2
##    playlist_subgenre             n
##    <chr>                     <int>
##  1 progressive electro house  1809
##  2 southern hip hop           1675
##  3 indie poptimism            1672
##  4 latin hip hop              1656
##  5 neo soul                   1637
##  6 pop edm                    1517
##  7 electro house              1511
##  8 hard rock                  1485
##  9 gangster rap               1458
## 10 electropop                 1408
## # … with 14 more rows
```
…
